…
  mutate(mrace = as.factor(case_when(
    mrace == 1 ~ "White",
    mrace == 2 ~ "Black",
    mrace == 3 ~ "Asian",
    mrace == 4 ~ "Puerto Rican",
    mrace == 8 ~ "Other"
  )))%>%
  mutate (malform = as.factor(case_when(
    malform == 0 ~ "absent",
    malform == 1 ~ "present"
  )))
baby_df
```

    ## # A tibble: 4,342 x 20
    ##    babysex bhead blength   bwt delwt fincome frace gaweeks malform menarche
    ##    <fct>   <dbl>   <dbl> <dbl> <dbl>   <dbl> <fct>   <dbl> <fct>      <dbl>
    ##  1 female     34      51  3629   177      35 White    39.9 absent        13
    ##  2 male       34      48  3062   156      65 Black    25.9 absent        14
    ##  3 female     36      50  3345   148      85 White    39.9 absent        12
    ##  4 male       34      52  3062   157      55 White    40   absent        14
    ##  5 female     34      52  3374   156       5 White    41.6 absent        13
    ##  6 male       33      52  3374   129      55 White    40.7 absent        12
    ##  7 female     33      46  2523   126      96 Black    40.3 absent        14
    ##  8 female     33      49  2778   140       5 White    37.4 absent        12
    ##  9 male       36      52  3515   146      85 White    40.3 absent        11
    ## 10 male       33      50  3459   169      75 Black    40.7 absent        12
    ## # … with 4,332 more rows, and 10 more variables: mheight <dbl>, momage <dbl>,
    ## #   mrace <fct>, parity <dbl>, pnumlbw <dbl>, pnumsga <dbl>, ppbmi <dbl>,
    ## #   ppwt <dbl>, smoken <dbl>, wtgain <dbl>
…
r_squared_df
```

    ## # A tibble: 5,000 x 14
    ##    .id   results  r.squared adj.r.squared sigma statistic   p.value    df logLik
    ##    <chr> <list>       <dbl>         <dbl> <dbl>     <dbl>     <dbl> <dbl>  <dbl>
    ##  1 0001  <tibble…     0.895         0.895  3.11     3099. 7.45e-180     1  -932.
    ##  2 0002  <tibble…     0.901         0.901  3.05     3304. 2.23e-184     1  -924.
    ##  3 0003  <tibble…     0.906         0.906  2.88     3516. 8.30e-189     1  -903.
    ##  4 0004  <tibble…     0.923         0.922  2.74     4334. 6.78e-204     1  -885.
    ##  5 0005  <tibble…     0.894         0.894  3.04     3073. 2.93e-179     1  -923.
    ##  6 0006  <tibble…     0.924         0.924  2.86     4404. 4.61e-205     1  -901.
    ##  7 0007  <tibble…     0.914         0.914  2.90     3875. 8.66e-196     1  -905.
    ##  8 0008  <tibble…     0.913         0.913  2.86     3828. 6.42e-195     1  -901.
    ##  9 0009  <tibble…     0.935         0.935  2.57     5235. 9.78e-218     1  -861.
    ## 10 0010  <tibble…     0.921         0.920  2.82     4208. 9.26e-202     1  -896.
    ## # … with 4,990 more rows, and 5 more variables: AIC <dbl>, BIC <dbl>,
    ## #   deviance <dbl>, df.residual <int>, nobs <int>
…
